\relax 
\citation{achemso-control}
\providecommand{\mciteSetMaxWidth}[3]{\relax}
\providecommand{\mciteSetMaxCount}[3]{\relax}
\bibstyle{achemso}
\@writefile{lof}{\contentsline {figure}{\numberline {1}{\ignorespaces  Structure and thermo\relax }}{2}}
\providecommand*\caption@xref[2]{\@setref\relax\@undefined{#1}}
\newlabel{fig1}{{1}{2}}
\@writefile{lof}{\contentsline {figure}{\numberline {2}{\ignorespaces  Hard ions\relax }}{4}}
\newlabel{fig2}{{2}{4}}
\@writefile{lof}{\contentsline {figure}{\numberline {3}{\ignorespaces  Water ions\relax }}{6}}
\newlabel{fig3}{{3}{6}}
\bibdata{acs-eqns,Intro}
\bibstyle{achemso}
