\relax 
\citation{achemso-control}
\providecommand{\mciteSetMaxWidth}[3]{\relax}
\providecommand{\mciteSetMaxCount}[3]{\relax}
\bibstyle{achemso}
\citation{Carrasco2012}
\citation{Carrasco2012}
\citation{Roman2013}
\citation{Roman2013}
\citation{Thiel1987}
\citation{Siepmann1995}
\citation{Michaelides2003}
\citation{Thiel1987,Siepmann1995,Michaelides2003}
\citation{Limmer2013}
\citation{Limmer2013}
\citation{Rosta2015}
\citation{Rosta2015}
\citation{Willard2009}
\citation{Willard2009}
\citation{Ballard2012}
\citation{Ballard2012}
\citation{Geissler2001}
\citation{Marx1998}
\citation{Geissler2001,Marx1998}
\citation{Reischl2009}
\citation{Reischl2009}
\citation{Hassanali2011}
\citation{Hassanali2011}
\citation{Geissler1999}
\citation{Geissler1999}
\citation{Ballard2012}
\citation{Reed2008}
\citation{Willard2009,Reed2008}
\@writefile{lof}{\contentsline {figure}{\numberline {1}{\ignorespaces  Structure and thermo\relax }}{8}}
\providecommand*\caption@xref[2]{\@setref\relax\@undefined{#1}}
\newlabel{fig1}{{1}{8}}
\@writefile{lof}{\contentsline {figure}{\numberline {2}{\ignorespaces  Hard ions\relax }}{9}}
\newlabel{fig2}{{2}{9}}
\@writefile{lof}{\contentsline {figure}{\numberline {3}{\ignorespaces  Water ions\relax }}{10}}
\newlabel{fig3}{{3}{10}}
\bibdata{acs-Intro2,Intro}
\bibcite{Carrasco2012}{{1}{2012}{{Carrasco et~al.}}{{Carrasco, Hodgson, and Michaelides}}}
\bibcite{Roman2013}{{2}{2013}{{Roman and Gro\ss }}{{Roman, and Gro\ss }}}
\bibcite{Thiel1987}{{3}{1987}{{Thiel and Madey}}{{Thiel, and Madey}}}
\bibcite{Siepmann1995}{{4}{1995}{{Siepmann and Sprik}}{{Siepmann, and Sprik}}}
\bibcite{Michaelides2003}{{5}{2003}{{Michaelides et~al.}}{{Michaelides, Ranea, de~Andres, and King}}}
\bibcite{Limmer2013}{{6}{2013}{{Limmer et~al.}}{{Limmer, Willard, Madden, and Chandler}}}
\bibcite{Rosta2015}{{7}{2015}{{Rosta and Hummer}}{{Rosta, and Hummer}}}
\bibcite{Willard2009}{{8}{2009}{{Willard et~al.}}{{Willard, Reed, Madden, and Chandler}}}
\bibcite{Ballard2012}{{9}{2012}{{Ballard and Dellago}}{{Ballard, and Dellago}}}
\bibcite{Geissler2001}{{10}{2001}{{Geissler et~al.}}{{Geissler, Dellago, Chandler, Hutter, and Parrinello}}}
\bibcite{Marx1998}{{11}{1998}{{Marx et~al.}}{{Marx, Tuckerman, Hutter, and Parrinello}}}
\bibcite{Reischl2009}{{12}{2009}{{Reischl et~al.}}{{Reischl, K\"{o}finger, and Dellago}}}
\bibcite{Hassanali2011}{{13}{2011}{{Hassanali et~al.}}{{Hassanali, Prakash, Eshet, and Parrinello}}}
\bibcite{Geissler1999}{{14}{1999}{{Geissler et~al.}}{{Geissler, Dellago, and Chandler}}}
\bibcite{Reed2008}{{15}{2008}{{Reed et~al.}}{{Reed, Madden, and Papadopoulos}}}
\mciteSetMaxCount{main}{bibitem}{15}
\mciteSetMaxCount{main}{subitem}{1}
\mciteSetMaxWidth{main}{bibitem}{786432}
\mciteSetMaxWidth{main}{subitem}{0}
\bibstyle{achemso}
