This is BibTeX, Version 0.99d (TeX Live 2015)
Capacity: max_strings=35307, hash_size=35307, hash_prime=30011
The top-level auxiliary file: Intro2.aux
The style file: achemso.bst
Illegal, another \bibstyle command---line 60 of file Intro2.aux
 : \bibstyle
 :          {achemso}
I'm skipping whatever remains of this command
Reallocated singl_function (elt_size=4) to 100 items from 50.
Database file #1: acs-Intro2.bib
Database file #2: Intro.bib
Repeated entry---line 214 of file Intro.bib
 : @article{Willard2009
 :                     ,
I'm skipping whatever remains of this entry
achemso 2015/04/07 v3.10
You've used 16 entries,
            2514 wiz_defined-function locations,
            884 strings with 9982 characters,
and the built_in function-call counts, 5508 in all, are:
= -- 466
> -- 285
< -- 9
+ -- 113
- -- 97
* -- 596
:= -- 735
add.period$ -- 30
call.type$ -- 16
change.case$ -- 4
chr.to.int$ -- 2
cite$ -- 16
duplicate$ -- 304
empty$ -- 385
format.name$ -- 119
if$ -- 1063
int.to.chr$ -- 0
int.to.str$ -- 1
missing$ -- 0
newline$ -- 112
num.names$ -- 45
pop$ -- 31
preamble$ -- 1
purify$ -- 0
quote$ -- 0
skip$ -- 16
stack$ -- 0
substring$ -- 349
swap$ -- 299
text.length$ -- 30
text.prefix$ -- 0
top$ -- 1
type$ -- 109
warning$ -- 0
while$ -- 59
width$ -- 0
write$ -- 215
(There were 2 error messages)
