\relax 
\citation{achemso-control}
\providecommand{\mciteSetMaxWidth}[3]{\relax}
\providecommand{\mciteSetMaxCount}[3]{\relax}
\bibstyle{achemso}
\citation{Carrasco2012}
\citation{Carrasco2012}
\citation{Roman2013}
\citation{Roman2013}
\citation{Thiel1987}
\citation{Thiel1987}
\citation{Michaelides2003}
\citation{Michaelides2003}
\citation{Siepmann1995}
\citation{Siepmann1995}
\citation{Willard2009}
\citation{Willard2009}
\citation{Limmer2013}
\citation{Limmer2013}
\citation{Geissler2001}
\citation{Marx1998}
\citation{Geissler2001,Marx1998}
\citation{Hassanali2011}
\citation{Hassanali2011}
\citation{Reischl2009}
\citation{Reischl2009}
\citation{Ballard2012}
\citation{Ballard2012}
\bibdata{acs-Intro,Intro}
\bibcite{Carrasco2012}{{1}{2012}{{Carrasco et~al.}}{{Carrasco, Hodgson, and Michaelides}}}
\bibcite{Roman2013}{{2}{2013}{{Roman and Gro\ss }}{{Roman, and Gro\ss }}}
\bibcite{Thiel1987}{{3}{1987}{{Thiel and Madey}}{{Thiel, and Madey}}}
\bibcite{Michaelides2003}{{4}{2003}{{Michaelides et~al.}}{{Michaelides, Ranea, de~Andres, and King}}}
\bibcite{Siepmann1995}{{5}{1995}{{Siepmann and Sprik}}{{Siepmann, and Sprik}}}
\bibcite{Willard2009}{{6}{2009}{{Willard et~al.}}{{Willard, Reed, Madden, and Chandler}}}
\bibcite{Limmer2013}{{7}{2013}{{Limmer et~al.}}{{Limmer, Willard, Madden, and Chandler}}}
\bibcite{Geissler2001}{{8}{2001}{{Geissler et~al.}}{{Geissler, Dellago, Chandler, Hutter, and Parrinello}}}
\bibcite{Marx1998}{{9}{1998}{{Marx et~al.}}{{Marx, Tuckerman, Hutter, and Parrinello}}}
\bibcite{Hassanali2011}{{10}{2011}{{Hassanali et~al.}}{{Hassanali, Prakash, Eshet, and Parrinello}}}
\bibcite{Reischl2009}{{11}{2009}{{Reischl et~al.}}{{Reischl, K\"{o}finger, and Dellago}}}
\bibcite{Ballard2012}{{12}{2012}{{Ballard and Dellago}}{{Ballard, and Dellago}}}
\mciteSetMaxCount{main}{bibitem}{12}
\mciteSetMaxCount{main}{subitem}{1}
\mciteSetMaxWidth{main}{bibitem}{786432}
\mciteSetMaxWidth{main}{subitem}{0}
\bibstyle{achemso}
