This is BibTeX, Version 0.99d (TeX Live 2014)
Capacity: max_strings=35307, hash_size=35307, hash_prime=30011
The top-level auxiliary file: Intro.aux
The style file: achemso.bst
Illegal, another \bibstyle command---line 46 of file Intro.aux
 : \bibstyle
 :          {achemso}
I'm skipping whatever remains of this command
Reallocated singl_function (elt_size=4) to 100 items from 50.
Database file #1: acs-Intro.bib
Database file #2: Intro.bib
You've used 13 entries,
            2478 wiz_defined-function locations,
            854 strings with 9326 characters,
and the built_in function-call counts, 4448 in all, are:
= -- 376
> -- 236
< -- 8
+ -- 94
- -- 81
* -- 485
:= -- 597
add.period$ -- 24
call.type$ -- 13
change.case$ -- 3
chr.to.int$ -- 2
cite$ -- 13
duplicate$ -- 247
empty$ -- 307
format.name$ -- 98
if$ -- 846
int.to.chr$ -- 0
int.to.str$ -- 1
missing$ -- 0
newline$ -- 94
num.names$ -- 36
pop$ -- 22
preamble$ -- 1
purify$ -- 0
quote$ -- 0
skip$ -- 1
stack$ -- 0
substring$ -- 279
swap$ -- 247
text.length$ -- 24
text.prefix$ -- 0
top$ -- 0
type$ -- 88
warning$ -- 0
while$ -- 48
width$ -- 0
write$ -- 177
(There was 1 error message)
