\relax 
\citation{achemso-control}
\providecommand{\mciteSetMaxWidth}[3]{\relax}
\providecommand{\mciteSetMaxCount}[3]{\relax}
\bibstyle{achemso}
\citation{Carrasco2012}
\citation{Carrasco2012}
\citation{Roman2013}
\citation{Roman2013}
\citation{Thiel1987}
\citation{Siepmann1995}
\citation{Michaelides2003}
\citation{Thiel1987,Siepmann1995,Michaelides2003}
\citation{Limmer2013}
\citation{Limmer2013}
\citation{Rosta2015}
\citation{Rosta2015}
\citation{Willard2009}
\citation{Willard2009}
\citation{Ballard2012}
\citation{Ballard2012}
\citation{Geissler2001}
\citation{Marx1998}
\citation{Geissler2001,Marx1998}
\citation{Reischl2009}
\citation{Reischl2009}
\citation{Hassanali2011}
\citation{Hassanali2011}
\citation{Geissler1999}
\citation{Geissler1999}
\citation{Ballard2012}
\citation{Reed2008}
\citation{Willard2009,Reed2008}
\citation{Hassanali2011}
\@writefile{lof}{\contentsline {figure}{\numberline {1}{\ignorespaces  Typical snapshots going from a recombined state (black left panel) to a dissociated state (red right panel) for water ions (left) and classical ions (right). The positive ion is highlighted in green and the negatively charged ion is highlighted in yellow. The free energy profile as a function of $R$ is shown in the bottom panels with red for bulk and blue for the interface. \relax }}{10}}
\providecommand*\caption@xref[2]{\@setref\relax\@undefined{#1}}
\newlabel{fig1}{{1}{10}}
\@writefile{lof}{\contentsline {figure}{\numberline {2}{\ignorespaces  Flux-flux correlation function for the classical ions in the top panel with the distribution of the intanston times in the inset. The madelung potentials of the transition states as a function of interionic distance are shown in the bottom left panel. The free energy as a function of madelung potential is shown in the bottom right panel.\relax }}{11}}
\newlabel{fig2}{{2}{11}}
\@writefile{lof}{\contentsline {figure}{\numberline {3}{\ignorespaces  The distributions of the $\tau _{KMC}$ for the bulk (red) and the interface (blue) with the inset showing the instanton times. [DAVID please check colors for instanton times]. The free energy as a function of charge parameter is shown in the bottom left and the hydrogen bond correlation function is shown in the bottom left.\relax }}{12}}
\newlabel{fig3}{{3}{12}}
\citation{CP2K}
\citation{VandeVondele2005}
\citation{CP2K,VandeVondele2005}
\citation{Lippert1997}
\citation{Lippert1997}
\citation{vandevondele2007}
\citation{vandevondele2007}
\citation{goedecker1996}
\citation{hartwigsen1998}
\citation{goedecker1996,hartwigsen1998}
\citation{Perdew1996}
\citation{Perdew1996}
\citation{Grimme2010}
\citation{Grimme2010}
\citation{Golze2013a}
\citation{Golze2013a}
\citation{Siepmann1995}
\citation{Bussi2007}
\citation{Bussi2007}
\citation{Hassanali2011}
\citation{Hassanali2011}
\newlabel{eqn:Nions}{{0.13}{14}}
\citation{Limmer2013}
\@writefile{lof}{\contentsline {figure}{\numberline {4}{\ignorespaces  The recombination of water ions is followed by analysing the number of ions in the simulation as seen for a typical trajectory in the panel on the left. The recombination time is shifted to $t=0$. The panel on the right shows that the hydrogen bond wire contracts before recombination for both the interface and the bulk. \relax }}{15}}
\newlabel{Waterrec}{{4}{15}}
\citation{Sharma2007}
\citation{Sharma2007}
\@writefile{lof}{\contentsline {figure}{\numberline {5}{\ignorespaces  The recombination of water ions at two different interfaces is investigated using DFTMD simulations and the Kinetic Monte Carlo Model. The distributions of the rates show similar behavior at quick recombination times but differences are observed in the tails. \relax }}{16}}
\newlabel{PTratesAB}{{5}{16}}
\bibdata{acs-Ions,Intro}
\bibcite{Carrasco2012}{{1}{2012}{{Carrasco et~al.}}{{Carrasco, Hodgson, and Michaelides}}}
\bibcite{Roman2013}{{2}{2013}{{Roman and Gro\ss }}{{Roman, and Gro\ss }}}
\bibcite{Thiel1987}{{3}{1987}{{Thiel and Madey}}{{Thiel, and Madey}}}
\bibcite{Siepmann1995}{{4}{1995}{{Siepmann and Sprik}}{{Siepmann, and Sprik}}}
\bibcite{Michaelides2003}{{5}{2003}{{Michaelides et~al.}}{{Michaelides, Ranea, de~Andres, and King}}}
\bibcite{Limmer2013}{{6}{2013}{{Limmer et~al.}}{{Limmer, Willard, Madden, and Chandler}}}
\bibcite{Rosta2015}{{7}{2015}{{Rosta and Hummer}}{{Rosta, and Hummer}}}
\bibcite{Willard2009}{{8}{2009}{{Willard et~al.}}{{Willard, Reed, Madden, and Chandler}}}
\bibcite{Ballard2012}{{9}{2012}{{Ballard and Dellago}}{{Ballard, and Dellago}}}
\bibcite{Geissler2001}{{10}{2001}{{Geissler et~al.}}{{Geissler, Dellago, Chandler, Hutter, and Parrinello}}}
\bibcite{Marx1998}{{11}{1998}{{Marx et~al.}}{{Marx, Tuckerman, Hutter, and Parrinello}}}
\bibcite{Reischl2009}{{12}{2009}{{Reischl et~al.}}{{Reischl, K\"{o}finger, and Dellago}}}
\bibcite{Hassanali2011}{{13}{2011}{{Hassanali et~al.}}{{Hassanali, Prakash, Eshet, and Parrinello}}}
\bibcite{Geissler1999}{{14}{1999}{{Geissler et~al.}}{{Geissler, Dellago, and Chandler}}}
\bibcite{Reed2008}{{15}{2008}{{Reed et~al.}}{{Reed, Madden, and Papadopoulos}}}
\bibcite{CP2K}{{16}{2008}{{\textnormal  {The CP2K Developers Group }}}{{}}}
\bibcite{VandeVondele2005}{{17}{2005}{{VandeVondele et~al.}}{{VandeVondele, Krack, Mohamed, Parrinello, Chassaing, and Hutter}}}
\bibcite{Lippert1997}{{18}{1997}{{Lippert et~al.}}{{Lippert, Hutter, and Parrinello}}}
\bibcite{vandevondele2007}{{19}{2007}{{VandeVondele and Hutter}}{{VandeVondele, and Hutter}}}
\bibcite{goedecker1996}{{20}{1996}{{Goedecker et~al.}}{{Goedecker, Teter, and Hutter}}}
\bibcite{hartwigsen1998}{{21}{1998}{{Hartwigsen et~al.}}{{Hartwigsen, G{\oe }decker, and Hutter}}}
\bibcite{Perdew1996}{{22}{1996}{{Perdew et~al.}}{{Perdew, Burke, and Ernzerhof}}}
\bibcite{Grimme2010}{{23}{2010}{{Grimme et~al.}}{{Grimme, Antony, Ehrlich, and Krieg}}}
\bibcite{Golze2013a}{{24}{2013}{{Golze et~al.}}{{Golze, Iannuzzi, Nguyen, Passerone, and Hutter}}}
\bibcite{Bussi2007}{{25}{2007}{{Bussi et~al.}}{{Bussi, Donadio, and Parrinello}}}
\bibcite{Sharma2007}{{26}{2007}{{Sharma et~al.}}{{Sharma, Resta, and Car}}}
\mciteSetMaxCount{main}{bibitem}{26}
\mciteSetMaxCount{main}{subitem}{1}
\mciteSetMaxWidth{main}{bibitem}{786432}
\mciteSetMaxWidth{main}{subitem}{0}
\bibstyle{achemso}
