\relax 
\citation{CP2K}
\citation{VandeVondele2005}
\citation{Lippert1997}
\citation{vandevondele2007}
\citation{goedecker1996}
\citation{hartwigsen1998}
\citation{Perdew1996}
\citation{Grimme2010}
\citation{Golze2013a}
\citation{Siepmann1995}
\citation{Bussi2007}
\@writefile{toc}{\contentsline {section}{\numberline {0.1}DFT Simulations}{1}}
\@writefile{toc}{\contentsline {section}{\numberline {0.2}Classica Simulations}{1}}
\@writefile{toc}{\contentsline {section}{\numberline {0.3}Markov State Model}{1}}
\@writefile{toc}{\contentsline {section}{\numberline {0.4}Kinetic Monte Carlo}{1}}
\bibdata{I2}
\bibcite{Bussi2007}{1}
\bibcite{goedecker1996}{2}
\bibcite{Golze2013a}{3}
\bibcite{Grimme2010}{4}
\bibcite{hartwigsen1998}{5}
\bibcite{Lippert1997}{6}
\bibcite{Perdew1996}{7}
\bibcite{Siepmann1995}{8}
\bibcite{CP2K}{9}
\bibcite{vandevondele2007}{10}
\bibcite{VandeVondele2005}{11}
\bibstyle{plain}
